lo: [i4----] BitTorrent 82.58.216.115:38305 <-- 192.168.1.3:52888
lo: [i4----] BitTorrent 82.57.97.83:53137 <-- 192.168.1.3:52887
lo: [i4----] BitTorrent 83.216.184.241:51413 <-- 192.168.1.3:52895
lo: [i4----] BitTorrent 79.53.228.2:14627 <-- 192.168.1.3:52896
lo: [i4----] BitTorrent 120.62.33.241:39332 <-- 192.168.1.3:52894
lo: [i4----] BitTorrent 151.26.95.30:22673 <-- 192.168.1.3:52897
lo: [i4----] BitTorrent 79.55.129.22:12097 <-- 192.168.1.3:52893
lo: [i4----] BitTorrent 192.168.1.3:52903 --> 198.100.146.9:60163
lo: [i4----] BitTorrent 190.103.195.56:46633 <-- 192.168.1.3:52902
lo: [i4----] BitTorrent 82.58.216.115:38305 <-- 192.168.1.3:52907
lo: [i4----] BitTorrent 82.57.97.83:53137 <-- 192.168.1.3:52906
lo: [i4----] BitTorrent 151.26.95.30:22673 <-- 192.168.1.3:52911
lo: [i4----] BitTorrent 151.72.255.163:59928 <-- 192.168.1.3:52912
lo: [i4----] BitTorrent 79.53.228.2:14627 <-- 192.168.1.3:52909
lo: [i4----] BitTorrent 120.62.33.241:39332 <-- 192.168.1.3:52910
lo: [i4----] BitTorrent 79.55.129.22:12097 <-- 192.168.1.3:52908
lo: [i4----] BitTorrent 192.168.1.3:52915 --> 198.100.146.9:60163
lo: [i4----] BitTorrent 190.103.195.56:46633 <-- 192.168.1.3:52914
lo: [i4----] BitTorrent 151.15.48.189:47001 <-- 192.168.1.3:52917
lo: [i4----] BitTorrent 95.234.159.16:41205 <-- 192.168.1.3:52921
lo: [i4----] BitTorrent 95.237.193.34:11321 <-- 192.168.1.3:52922
lo: [i4----] BitTorrent 83.216.184.241:51413 <-- 192.168.1.3:52927
lo: [i4----] BitTorrent 93.65.249.100:31336 <-- 192.168.1.3:52926
lo: [i4----] BitTorrent 93.65.227.100:19116 <-- 192.168.1.3:52925
