lo: [i4-g--] IMAPS 17.172.100.70:993 <-- 192.168.2.4:49199
lo: [i4----] DNS.140.netify.apple 192.168.2.1:53 <-- 192.168.2.4:51897 H: query.ess.apple.com
lo: [i4----] DNS.142.netify.whatsapp 192.168.2.1:53 <-- 192.168.2.4:52190 H: e13.whatsapp.net
lo: [i4----] HTTPS.140.netify.apple 17.178.104.12:443 <-- 192.168.2.4:49201 SSL C: query.ess.apple.com S: *.ess.apple.com
lo: [i4----] ApplePush.140.netify.apple 17.110.229.14:5223 <-- 192.168.2.4:49193
lo: [i4--G-] WhatsApp.142.netify.whatsapp 184.173.179.37:5222 <-- 192.168.2.4:49202 H: e13.whatsapp.net
lo: [i4----] HTTPS.145.netify.apple-itunes 17.173.66.102:443 <-- 192.168.2.4:49204 SSL C: p53-buy.itunes.apple.com
lo: [i4-g--] STUN 31.13.91.48:3478 <-- 192.168.2.4:51518
lo: [i4----] Spotify.156.netify.spotify 192.168.2.1:57621 --> 192.168.2.255:57621
lo: [i4----] WhatsAppVoice 91.253.176.65:9344 <-- 192.168.2.4:51518
lo: [i4-g--] Unknown 1.194.90.191:60312 <-- 192.168.2.4:51518
lo: [i4----] ICMP 91.253.176.65:0 <-- 192.168.2.4:0
lo: [i4----] DHCP 0.0.0.0:68 --> 255.255.255.255:67 H: lucas-imac
lo: [i4----] MDNS 169.254.166.207:5353 --> 224.0.0.251:5353
lo: [i6----] MDNS fe80::da30:62ff:fe56:1c:5353 --> ff02::fb:5353
lo: [i4----] MDNS 192.168.2.1:5353 --> 224.0.0.251:5353
lo: [i6----] MDNS fe80::c42c:3ff:fe60:6a64:5353 --> ff02::fb:5353
lo: [i4----] Spotify.156.netify.spotify 192.168.2.1:57621 --> 192.168.2.255:57621
lo: [i4-g--] STUN 173.252.114.1:3478 <-- 192.168.2.4:52794
lo: [i4----] WhatsAppVoice 91.253.176.65:9665 <-- 192.168.2.4:52794
lo: [i4-g--] Unknown 1.194.90.191:51727 <-- 192.168.2.4:52794
lo: [i4----] ICMP 91.253.176.65:0 <-- 192.168.2.4:0
lo: [i4----] HTTPS.145.netify.apple-itunes 17.173.66.102:443 <-- 192.168.2.4:49205 SSL C: p53-buy.itunes.apple.com
